// Jest Snapshot v1, https://goo.gl/fbAQLP

exports[`Card Component should render the Card with default props 1`] = `
<div
  class="card"
  style="min-height: 450px; height: 450px; min-width: 450px; width: 450px;"
>
  <h2
    style="font-size: 48px;"
  >
    
			Test Card
		
  </h2>
   
  <div
    class="details"
    style="height: 0px; display: none;"
  />
</div>
`;
