// Jest Snapshot v1, https://goo.gl/fbAQLP

exports[`Button Component should render the Button component with 18px font 1`] = `
<button
  style="font-size: 18px;"
>
  <span>
    Test Button
  </span>
</button>
`;
